----------------------------------------------------------------------------------------------------------------------------------------------
GIT COMMANDS:
git commit -m
git add .
git init
git status
git log
git branch
git push bitbucket (Use this push)
----------------------------------------------------------------------------------------------------------------------------------------------
HTACCESS:
ErrorDocument 401 /error_pages/401.html
(THIS IS FOR ERROR DOCUMENTS)

username:encryptedpassword
ExampleName:ExamplePassword
(ACCOUNTS FOR PASSWORD PROTECTION)
----------------------------------------------------------------------------------------------------------------------------------------------
